STAT 209: Lab 9
…
Code:

babynames1950to2000 %>%
  rename(num_births = n) %>%
  mutate(
    num_if_amab = ifelse(sex == "M", num_births, 0),
    num_if_afab = ifelse(sex == "F", num_births, 0)) %>%
  group_by(year, name) %>%
  summarize(
    num_amab     = sum(num_if_amab),
    num_afab     = sum(num_if_afab),
    total_births = sum(num_births))

## # A tibble: 820,608 x 5
## # Groups:   year [51]
##     year name    num_amab num_afab total_births
##    <dbl> <chr>      <dbl>    <dbl>        <int>
##  1  1950 Aaron        798        7          805
##  2  1950 Abagail        0        5            5
##  3  1950 Abbe           0       10           10
##  4  1950 Abbey          0        7            7
##  5  1950 Abbie          0       68           68
##  6  1950 Abbott         9        0            9
##  7  1950 Abby           5       68           73
##  8  1950 Abdul          8        0            8
##  9  1950 Abe           46        0           46
## 10  1950 Abel         170        0          170
## #  with 820,598 more rows
…
